module gitlab.com/flattrack/operator

go 1.23

toolchain go1.23.2

require (
	filippo.io/age v1.1.1
	github.com/cloudnative-pg/cloudnative-pg v1.24.0
	github.com/google/go-containerregistry v0.20.2
	github.com/minio/minio-go/v7 v7.0.78
	github.com/onsi/ginkgo/v2 v2.20.0
	github.com/onsi/gomega v1.34.1
	k8s.io/api v0.31.1
	k8s.io/apimachinery v0.31.1
	k8s.io/client-go v0.31.1
	k8s.io/utils v0.0.0-20240921022957-49e7df575cb6
	knative.dev/serving v0.42.2
	sigs.k8s.io/controller-runtime v0.19.0
)

require (
	github.com/beorn7/perks v1.0.1 // indirect
	github.com/blendle/zapdriver v1.3.1 // indirect
	github.com/cespare/xxhash/v2 v2.3.0 // indirect
	github.com/containerd/stargz-snapshotter/estargz v0.15.1 // indirect
	github.com/davecgh/go-spew v1.1.2-0.20180830191138-d8f796af33cc // indirect
	github.com/docker/cli v27.3.1+incompatible // indirect
	github.com/docker/distribution v2.8.3+incompatible // indirect
	github.com/docker/docker-credential-helpers v0.8.2 // indirect
	github.com/dustin/go-humanize v1.0.1 // indirect
	github.com/emicklei/go-restful/v3 v3.12.1 // indirect
	github.com/evanphx/json-patch/v5 v5.9.0 // indirect
	github.com/fsnotify/fsnotify v1.7.0 // indirect
	github.com/fxamacker/cbor/v2 v2.7.0 // indirect
	github.com/go-ini/ini v1.67.0 // indirect
	github.com/go-logr/logr v1.4.2 // indirect
	github.com/go-logr/zapr v1.3.0 // indirect
	github.com/go-openapi/jsonpointer v0.21.0 // indirect
	github.com/go-openapi/jsonreference v0.21.0 // indirect
	github.com/go-openapi/swag v0.23.0 // indirect
	github.com/go-task/slim-sprig/v3 v3.0.0 // indirect
	github.com/goccy/go-json v0.10.3 // indirect
	github.com/gogo/protobuf v1.3.2 // indirect
	github.com/golang/groupcache v0.0.0-20210331224755-41bb18bfe9da // indirect
	github.com/golang/protobuf v1.5.4 // indirect
	github.com/google/gnostic-models v0.6.8 // indirect
	github.com/google/go-cmp v0.6.0 // indirect
	github.com/google/gofuzz v1.2.0 // indirect
	github.com/google/pprof v0.0.0-20240727154555-813a5fbdbec8 // indirect
	github.com/google/uuid v1.6.0 // indirect
	github.com/gorilla/websocket v1.5.3 // indirect
	github.com/imdario/mergo v0.3.16 // indirect
	github.com/josharian/intern v1.0.0 // indirect
	github.com/json-iterator/go v1.1.12 // indirect
	github.com/klauspost/compress v1.17.11 // indirect
	github.com/klauspost/cpuid/v2 v2.2.8 // indirect
	github.com/kubernetes-csi/external-snapshotter/client/v8 v8.0.0 // indirect
	github.com/lib/pq v1.10.9 // indirect
	github.com/mailru/easyjson v0.7.7 // indirect
	github.com/minio/md5-simd v1.1.2 // indirect
	github.com/mitchellh/go-homedir v1.1.0 // indirect
	github.com/moby/spdystream v0.5.0 // indirect
	github.com/modern-go/concurrent v0.0.0-20180306012644-bacd9c7ef1dd // indirect
	github.com/modern-go/reflect2 v1.0.2 // indirect
	github.com/munnerz/goautoneg v0.0.0-20191010083416-a7dc8b61c822 // indirect
	github.com/mxk/go-flowrate v0.0.0-20140419014527-cca7078d478f // indirect
	github.com/opencontainers/go-digest v1.0.0 // indirect
	github.com/opencontainers/image-spec v1.1.0 // indirect
	github.com/pkg/errors v0.9.1 // indirect
	github.com/prometheus-operator/prometheus-operator/pkg/apis/monitoring v0.77.1 // indirect
	github.com/prometheus/client_golang v1.20.4 // indirect
	github.com/prometheus/client_model v0.6.1 // indirect
	github.com/prometheus/common v0.60.0 // indirect
	github.com/prometheus/procfs v0.15.1 // indirect
	github.com/robfig/cron v1.2.0 // indirect
	github.com/rs/xid v1.6.0 // indirect
	github.com/sirupsen/logrus v1.9.3 // indirect
	github.com/spf13/pflag v1.0.5 // indirect
	github.com/vbatts/tar-split v0.11.6 // indirect
	github.com/x448/float16 v0.8.4 // indirect
	go.uber.org/multierr v1.11.0 // indirect
	go.uber.org/zap v1.27.0 // indirect
	golang.org/x/crypto v0.28.0 // indirect
	golang.org/x/exp v0.0.0-20241009180824-f66d83c29e7c // indirect
	golang.org/x/net v0.30.0 // indirect
	golang.org/x/oauth2 v0.23.0 // indirect
	golang.org/x/sync v0.8.0 // indirect
	golang.org/x/sys v0.26.0 // indirect
	golang.org/x/term v0.25.0 // indirect
	golang.org/x/text v0.19.0 // indirect
	golang.org/x/time v0.7.0 // indirect
	golang.org/x/tools v0.26.0 // indirect
	gomodules.xyz/jsonpatch/v2 v2.4.0 // indirect
	google.golang.org/protobuf v1.35.1 // indirect
	gopkg.in/inf.v0 v0.9.1 // indirect
	gopkg.in/yaml.v2 v2.4.0 // indirect
	gopkg.in/yaml.v3 v3.0.1 // indirect
	k8s.io/apiextensions-apiserver v0.31.1 // indirect
	k8s.io/klog/v2 v2.130.1 // indirect
	k8s.io/kube-openapi v0.0.0-20241009091222-67ed5848f094 // indirect
	knative.dev/networking v0.0.0-20241010132208-75d9920a9248 // indirect
	knative.dev/pkg v0.0.0-20241010131207-e0f65ceabc68 // indirect
	sigs.k8s.io/json v0.0.0-20241010143419-9aa6b5e7a4b3 // indirect
	sigs.k8s.io/structured-merge-diff/v4 v4.4.1 // indirect
	sigs.k8s.io/yaml v1.4.0 // indirect
)
